{
	"info": {
		"_postman_id": "cb156871-b6df-43a9-ac0d-008ae7dc38d2",
		"name": "s45",
		"schema": "https://schema.getpostman.com/json/collection/v2.1.0/collection.json",
		"_exporter_id": "27182293"
	},
	"item": [
		{
			"name": "create order",
			"request": {
				"auth": {
					"type": "bearer",
					"bearer": [
						{
							"key": "token",
							"value": "eyJhbGciOiJIUzI1NiIsInR5cCI6IkpXVCJ9.eyJpZCI6IjY0N2U4MGU4N2ViM2Q5ZWNiNGY3NmU2NiIsImlzQWRtaW4iOmZhbHNlLCJlbWFpbCI6InRyYXZpc3Njb3R0QGdtYWlsIiwiaWF0IjoxNjg2MDU3NjM0fQ.csZefWKsjKNhnvi3uKULcV5Qi6ARVaL_DWcqQXHMkng",
							"type": "string"
						}
					]
				},
				"method": "POST",
				"header": [],
				"body": {
					"mode": "raw",
					"raw": "{\r\n    \"id\" : \"647eac184f2bae21b1c9b7d0\"\r\n}",
					"options": {
						"raw": {
							"language": "json"
						}
					}
				},
				"url": {
					"raw": "localhost:4000/user/createOrder",
					"host": [
						"localhost"
					],
					"port": "4000",
					"path": [
						"user",
						"createOrder"
					]
				}
			},
			"response": []
		},
		{
			"name": "get user details",
			"protocolProfileBehavior": {
				"disableBodyPruning": true
			},
			"request": {
				"auth": {
					"type": "bearer",
					"bearer": [
						{
							"key": "token",
							"value": "{{adminGlobal}}",
							"type": "string"
						}
					]
				},
				"method": "GET",
				"header": [],
				"body": {
					"mode": "raw",
					"raw": "{\r\n    \"email\": \"juicewrld@gmail\",\r\n    \"password\": \"123\"\r\n}",
					"options": {
						"raw": {
							"language": "json"
						}
					}
				},
				"url": {
					"raw": "localhost:4000/user/userDetails",
					"host": [
						"localhost"
					],
					"port": "4000",
					"path": [
						"user",
						"userDetails"
					]
				}
			},
			"response": []
		}
	]
}